position: 100 101 
predictionParameter B
predictionParameterLength 2
nExps 6000
nRead 0
nIndiv 300
nHof 20
nGen 30
genMinTreeHeight 1
genMaxTreeHeight 10
   	      	               fitness                	              size             
   	      	--------------------------------------	-------------------------------
gen	nevals	avg   	max   	min     	std   	avg    	max 	min	std    
0  	300   	221713	352140	-4603.59	168587	274.883	5840	2  	871.355
1  	178   	82280.9	352499	-4603.59	150550	144.463	2676	1  	360.952
2  	179   	2668.17	350604	-4723.4 	44942.9	130.39 	1603	1  	282.653
3  	201   	-3315.83	-1298.95	-4710.58	456.484	202.803	1156	1  	360.231
4  	175   	-3539.44	-2514.67	-4795.2 	553.293	390.15 	1154	1  	454.048
5  	170   	-3915.32	-2677.2 	-4874.54	561.104	476.823	1203	1  	395.259
6  	177   	-4224.07	-2592.84	-4924.03	493.82 	380.13 	1161	9  	324.334
7  	166   	-4354.87	-2597.97	-4925.48	509.146	232.237	690 	4  	265.043
8  	165   	-4461.42	-1150.86	-4956.58	570.634	109.92 	656 	30 	164.868
9  	165   	-4499.14	-2872.84	-5267.16	592.605	71.9933	656 	1  	82.7551
10 	169   	-4581.12	-1586.96	-5185.66	600.245	64.27  	632 	8  	37.4484
11 	159   	-4656.74	-2331.61	-5250.44	585.268	61.5933	131 	1  	17.9422
12 	164   	-4671.22	-1954.94	-5291.41	644.919	60.8667	129 	3  	14.6718
13 	185   	-4710.3 	-2430.15	-5291.41	623.389	60.31  	128 	3  	12.5377
14 	158   	-4810.3 	-2818.4 	-5344.65	584.155	59.9533	93  	3  	12.4396
15 	151   	-4809.54	-2670.59	-5337.57	649.08 	63.6633	96  	28 	14.3941
16 	184   	-4816.21	-1053.93	-5337.57	721.545	66.7833	116 	1  	16.5512
17 	158   	-4897.11	-790.291	-5337.57	733.028	65.98  	108 	1  	18.3397
18 	146   	-4956.68	-2776.54	-5337.77	723.295	62.4   	115 	1  	18.4803
19 	166   	-5022.33	-2760.74	-5368.98	670.598	58.1933	98  	1  	16.6043
20 	195   	-4894.26	-2791.69	-5362.56	826.804	55.4167	113 	21 	15.7771
21 	171   	-4973.53	-2818.31	-5364.67	762.095	53.5633	105 	1  	15.212 
22 	170   	-4935.32	-2783.63	-5364.67	802.078	54.3967	113 	1  	14.1489
23 	158   	-4962.05	-625.576	-5378.51	826.882	54.38  	113 	6  	13.0185
24 	182   	-5000.18	-2775.29	-5388.56	762.934	55.7733	115 	3  	13.5308
25 	181   	-4927.24	-2754.86	-5388.56	824.568	55.7633	115 	1  	12.2999
26 	171   	-4933.3 	-968.211	-5434.26	849.473	56.54  	115 	1  	11.7273
27 	173   	-4969.11	-2787.65	-5434.26	817.594	59.2667	115 	28 	11.0098
28 	150   	-5131.46	-2815.34	-5434.26	653.123	61.0233	115 	1  	11.323 
29 	181   	-4931.61	-1327.64	-5434.26	883.647	62.17  	91  	10 	10.8598
30 	185   	-4928.09	-918.913	-5434.26	899.082	62.9033	94  	10 	10.8272
0 (-5434.2640420005455,) IF0T(IF1T(AND(IF1T(time_12_15, age_oldest_55P, age_youngest_40_55), OR(A_0, car_age_15P)), NAND(XOR(NAND(NOT(OR(state_AR, state_WY)), married_couple), OR(state_PA, state_NE)), age_youngest_20_24), NOT(OR(state_AR, state_WY))), coeficientPos(coeficientPos(add(sub(sub(O1, Null), add(O1, Null)), coeficientPos(coeficientPos(O1, 0.5), identityf(0.5))), identityf(0.1)), identityf(identityf(0.9))), IF1T(IF1T(NOT(state_AR), IF1T(NOR(IF1T(state_CT, risk_factor_1, state_ND), NAND(state_OH, G_1)), C_previous_3, B_0), NOT(state_AR)), coeficientPos(O1, identityf(-0.2)), coeficientPos(coeficientPos(O1, 0.5), identityf(0.6))))
1 (-5422.441727999594,) IF0T(IF1T(AND(IF1T(time_12_15, age_oldest_55P, age_youngest_40_55), OR(A_0, car_age_15P)), NAND(XOR(NAND(risk_factor_1, age_youngest_20_24), OR(state_PA, state_NE)), age_youngest_20_24), NOT(OR(state_AR, state_WY))), coeficientPos(coeficientPos(O1, 0.5), identityf(0.6)), IF1T(IF1T(NOT(state_AR), IF1T(NOR(IF1T(state_CT, risk_factor_1, state_ND), NAND(state_OH, G_1)), AND(risk_factor_2, state_UT), B_0), NOT(state_AR)), coeficientPos(O1, identityf(-0.2)), coeficientPos(coeficientPos(O1, 0.5), identityf(0.6))))
2 (-5418.348192000349,) IF0T(IF1T(AND(IF1T(state_PA, age_oldest_55P, age_youngest_40_55), OR(A_0, car_age_15P)), NAND(XOR(NAND(B_0, married_couple), OR(state_PA, state_NE)), age_youngest_20_24), NOT(state_AR)), coeficientPos(coeficientPos(add(O1, Null), identityf(identityf(0.2))), identityf(identityf(identityf(0.6)))), IF1T(IF1T(NOT(state_AR), IF1T(NOR(IF1T(state_CT, risk_factor_1, state_ND), NAND(state_OH, G_1)), C_previous_3, B_0), NOT(state_AR)), coeficientPos(O1, identityf(-0.2)), coeficientPos(coeficientPos(O1, 0.5), identityf(0.6))))
3 (-5410.050689999396,) IF0T(IF1T(AND(IF1T(state_PA, age_oldest_55P, age_youngest_40_55), OR(A_0, car_age_15P)), NAND(XOR(NAND(B_0, married_couple), OR(state_PA, state_NE)), age_youngest_20_24), NOT(state_AR)), coeficientPos(O1, identityf(identityf(0.9))), IF1T(IF1T(NOT(state_AR), IF1T(NOR(IF1T(state_CT, risk_factor_1, state_ND), NAND(state_OH, G_1)), C_previous_3, B_0), NOT(state_AR)), coeficientPos(O1, identityf(-0.2)), coeficientPos(coeficientPos(O1, 0.5), identityf(0.6))))
4 (-5408.488548000285,) IF0T(IF1T(AND(IF1T(state_PA, age_oldest_55P, age_youngest_40_55), OR(A_0, car_age_15P)), NAND(XOR(NAND(B_0, married_couple), OR(A_0, state_NE)), age_youngest_20_24), NOT(OR(state_AR, state_WY))), coeficientPos(coeficientPos(O1, identityf(-0.2)), identityf(identityf(identityf(0.1)))), IF1T(IF1T(NOT(state_AR), IF1T(NOR(IF1T(state_CT, risk_factor_1, state_ND), NAND(state_OH, G_1)), C_previous_3, B_0), NOT(state_AR)), coeficientPos(O1, identityf(-0.2)), coeficientPos(coeficientPos(O1, 0.5), identityf(0.6))))
5 (-5404.171317999848,) IF0T(IF1T(AND(IF1T(time_12_15, age_oldest_55P, age_youngest_40_55), OR(A_0, car_age_15P)), NAND(XOR(NAND(NOT(OR(state_AR, OR(A_0, car_age_15P))), married_couple), OR(state_PA, state_NE)), age_youngest_20_24), NOT(OR(state_AR, state_WY))), coeficientPos(coeficientPos(add(sub(sub(O1, Null), add(O1, Null)), coeficientPos(coeficientPos(O1, 0.5), identityf(0.5))), identityf(0.1)), identityf(identityf(0.9))), IF1T(IF1T(NOT(state_AR), IF1T(NOR(IF1T(state_CT, risk_factor_1, state_ND), NAND(state_OH, G_1)), C_previous_3, B_0), NOT(state_AR)), coeficientPos(O1, identityf(-0.2)), coeficientPos(coeficientPos(O1, 0.5), identityf(0.6))))
6 (-5403.384096000293,) IF0T(IF1T(AND(IF1T(time_12_15, age_oldest_55P, age_youngest_40_55), OR(A_0, car_age_15P)), NAND(XOR(NAND(NOT(OR(state_AR, state_WY)), married_couple), OR(state_PA, state_NE)), age_youngest_20_24), NOT(OR(state_AR, state_WY))), coeficientPos(coeficientPos(IF1T(IF1T(NOT(state_AR), IF1T(NOR(IF1T(state_CT, risk_factor_1, state_ND), NAND(state_OH, OR(OR(state_OK, state_IA), XOR(C_4, group_size_3)))), C_previous_3, B_0), NOT(state_AR)), coeficientPos(O1, identityf(-0.2)), coeficientPos(coeficientPos(O1, 0.5), identityf(0.6))), identityf(0.1)), identityf(identityf(0.9))), IF1T(IF1T(NOT(state_AR), IF1T(NOR(IF1T(state_CT, risk_factor_1, state_ND), NAND(state_OH, G_1)), C_previous_3, B_0), NOT(state_AR)), coeficientPos(O1, identityf(-0.2)), coeficientPos(coeficientPos(O1, 0.5), identityf(0.6))))
7 (-5402.768832000535,) IF0T(IF1T(AND(IF1T(time_12_15, age_oldest_55P, age_youngest_40_55), OR(A_0, car_age_15P)), NAND(XOR(NAND(B_0, married_couple), OR(state_PA, state_NE)), age_youngest_20_24), NOT(OR(state_AR, state_WY))), coeficientPos(coeficientPos(add(O1, coeficientPos(coeficientPos(O1, 0.5), identityf(identityf(identityf(0.9))))), identityf(0.5)), identityf(-0.2)), IF1T(IF1T(NOT(state_AR), IF1T(NOR(IF1T(state_CT, risk_factor_1, state_ND), NAND(state_OH, G_1)), C_previous_3, B_0), NOT(state_AR)), coeficientPos(O1, identityf(-0.2)), coeficientPos(coeficientPos(O1, 0.5), identityf(0.6))))
8 (-5397.627579999988,) IF0T(IF1T(AND(IF1T(time_12_15, age_oldest_55P, age_youngest_40_55), OR(A_0, car_age_15P)), NAND(XOR(NAND(NOT(OR(state_AR, OR(A_0, car_age_15P))), married_couple), OR(state_PA, state_NE)), age_youngest_20_24), NOT(OR(state_AR, state_WY))), coeficientPos(coeficientPos(add(sub(sub(O1, Null), add(coeficientPos(coeficientPos(O1, 0.5), identityf(0.6)), Null)), coeficientPos(coeficientPos(O1, 0.5), identityf(0.5))), identityf(0.1)), identityf(identityf(0.9))), IF1T(IF1T(NOT(state_AR), IF1T(NOR(IF1T(state_CT, risk_factor_1, state_ND), NAND(state_OH, G_1)), C_previous_3, B_0), NOT(state_AR)), coeficientPos(O1, identityf(-0.2)), coeficientPos(coeficientPos(O1, 0.5), identityf(0.6))))
9 (-5395.350553999807,) IF0T(IF1T(AND(IF1T(time_12_15, age_oldest_55P, age_youngest_40_55), OR(A_0, car_age_15P)), NAND(XOR(NAND(B_0, married_couple), OR(state_PA, state_NE)), age_youngest_20_24), NOT(OR(state_AR, state_WY))), coeficientPos(coeficientPos(add(O1, coeficientPos(O1, 0.7)), identityf(0.1)), identityf(-0.2)), IF1T(IF1T(NOT(state_AR), IF1T(NOR(IF1T(state_CT, risk_factor_1, state_ND), NAND(state_OH, G_1)), C_previous_3, B_0), NOT(state_AR)), coeficientPos(O1, identityf(-0.2)), coeficientPos(coeficientPos(O1, 0.5), identityf(0.6))))
10 (-5393.71977799985,) IF0T(IF1T(AND(IF1T(time_12_15, age_oldest_55P, age_youngest_40_55), OR(A_0, car_age_15P)), XOR(NOT(age_oldest_25_40), AND(state_OK, age_oldest_55P)), NOT(OR(AND(state_AL, OR(group_size_3, state_NY)), state_WY))), coeficientPos(IF1T(OR(group_size_3, state_NY), sub(O1, Null), coeficientPos(Null, -0.9)), 0.6), IF1T(IF1T(NOT(state_MO), IF1T(state_MO, state_TN, B_0), NOR(C_2, duration_previous_9P)), coeficientPos(O1, identityf(-0.2)), coeficientPos(coeficientPos(O1, 0.5), identityf(0.6))))
11 (-5393.671199999255,) IF0T(IF1T(AND(IF1T(time_12_15, age_oldest_55P, age_youngest_40_55), OR(A_0, car_age_15P)), NAND(XOR(NAND(B_0, married_couple), OR(state_PA, state_NE)), age_youngest_20_24), NOT(OR(state_AR, state_WY))), coeficientPos(coeficientPos(add(O1, coeficientPos(coeficientPos(O1, 0.5), identityf(identityf(identityf(0.9))))), identityf(0.5)), identityf(identityf(0.9))), IF1T(IF1T(NOT(state_AR), IF1T(NOR(IF1T(state_CT, risk_factor_1, state_ND), NAND(state_OH, G_1)), C_previous_3, B_0), NOT(state_AR)), coeficientPos(O1, identityf(-0.2)), coeficientPos(coeficientPos(O1, 0.5), identityf(0.6))))
12 (-5393.659311999985,) IF0T(IF1T(AND(IF1T(time_12_15, age_oldest_55P, age_youngest_40_55), OR(A_0, car_age_15P)), NAND(XOR(NAND(risk_factor_1, age_youngest_20_24), OR(state_PA, state_NE)), age_youngest_20_24), NOT(OR(state_AR, state_WY))), IF1T(IF1T(NOT(state_AR), IF1T(state_MO, C_previous_3, B_0), NOR(C_2, duration_previous_9P)), IF1T(IF1T(NOT(state_AR), IF1T(state_MO, C_previous_3, B_0), NOR(C_2, duration_previous_9P)), coeficientPos(O1, identityf(-0.2)), coeficientPos(coeficientPos(O1, 0.5), identityf(0.6))), coeficientPos(O1, identityf(0.6))), IF1T(IF1T(NOT(state_AR), IF1T(NOR(IF1T(state_CT, risk_factor_1, state_ND), NAND(state_OH, G_1)), AND(risk_factor_2, time_9_12), B_0), NOT(state_AR)), coeficientPos(O1, identityf(-0.2)), coeficientPos(coeficientPos(O1, 0.5), identityf(0.6))))
13 (-5393.563200000091,) IF0T(IF1T(AND(IF1T(time_12_15, age_oldest_55P, age_youngest_40_55), OR(A_0, car_age_15P)), NAND(XOR(NAND(B_0, married_couple), G_1), age_youngest_20_24), NOT(AND(OR(D_2, FALSE), IF1T(time_21_24, OR(day_monday, state_DC), state_DC)))), coeficientPos(coeficientPos(add(O1, coeficientPos(coeficientPos(O1, 0.5), identityf(0.6))), identityf(0.1)), identityf(identityf(0.9))), IF1T(IF1T(NOT(state_AR), IF1T(NOR(IF1T(state_CT, risk_factor_1, state_ND), NAND(state_OH, G_1)), C_previous_3, B_0), NOT(state_AR)), coeficientPos(O1, identityf(-0.2)), coeficientPos(coeficientPos(O1, 0.5), identityf(0.6))))
14 (-5391.667764000726,) IF0T(IF1T(AND(IF1T(time_12_15, age_oldest_55P, age_youngest_40_55), OR(A_0, car_age_15P)), XOR(NOT(age_oldest_25_40), AND(state_OK, age_oldest_55P)), NOT(OR(AND(state_AL, car_value_a), state_WY))), coeficientPos(IF1T(OR(group_size_3, state_NY), O1, coeficientPos(O1, identityf(-0.2))), identityf(identityf(0.6))), IF1T(IF1T(NOT(state_MO), IF1T(state_MO, state_TN, B_0), NOR(C_2, duration_previous_9P)), coeficientPos(O1, identityf(-0.2)), coeficientPos(coeficientPos(O1, 0.5), identityf(0.6))))
15 (-5391.436032000096,) IF0T(IF1T(AND(IF1T(time_12_15, age_oldest_55P, age_youngest_40_55), OR(A_0, car_age_15P)), NAND(XOR(NAND(NOT(OR(state_AR, state_WY)), married_couple), OR(state_PA, state_NE)), age_youngest_20_24), NOT(OR(state_AR, state_WY))), coeficientPos(coeficientPos(add(sub(sub(O1, Null), add(O1, Null)), coeficientPos(coeficientPos(O1, 0.5), identityf(0.5))), identityf(0.1)), identityf(0.7)), IF1T(IF1T(NOT(state_AR), IF1T(NOR(IF1T(state_CT, risk_factor_1, state_ND), NAND(state_OH, G_1)), C_previous_3, B_0), NOT(state_AR)), coeficientPos(O1, identityf(-0.2)), coeficientPos(coeficientPos(O1, 0.5), identityf(0.6))))
16 (-5390.733503999995,) IF0T(IF1T(AND(IF1T(state_PA, age_oldest_55P, age_youngest_40_55), OR(A_0, car_age_15P)), NAND(XOR(NAND(B_0, married_couple), OR(state_PA, state_NE)), age_youngest_20_24), NOT(state_AR)), coeficientPos(coeficientPos(add(O1, Null), identityf(0.1)), identityf(identityf(0.9))), IF1T(IF1T(NOT(state_AR), IF1T(NOR(IF1T(state_CT, risk_factor_1, state_ND), NAND(state_OH, G_1)), C_previous_3, B_0), NOT(state_AR)), coeficientPos(O1, -0.2), coeficientPos(coeficientPos(O1, 0.5), identityf(0.6))))
17 (-5390.102634000035,) IF0T(IF1T(AND(IF1T(time_12_15, age_oldest_55P, age_youngest_40_55), OR(A_0, car_age_15P)), NAND(XOR(NAND(B_0, married_couple), car_age_15P), age_youngest_20_24), NOT(AND(OR(D_2, FALSE), IF1T(time_21_24, car_age_0_5, state_DC)))), IF1T(IF1T(NOT(state_AR), IF1T(state_MO, C_previous_3, B_0), NOR(C_2, NOR(cost_0_605, C_2))), coeficientPos(O1, identityf(-0.2)), coeficientPos(coeficientPos(O1, 0.5), identityf(0.6))), IF1T(IF1T(NOT(state_AR), IF1T(NOR(IF1T(state_CT, risk_factor_1, state_ND), NAND(state_OH, G_1)), C_previous_3, B_0), NOT(state_AR)), coeficientPos(O1, identityf(-0.2)), coeficientPos(coeficientPos(O1, 0.5), identityf(0.6))))
18 (-5389.600343999595,) IF0T(IF1T(AND(IF1T(time_9_12, age_oldest_55P, age_youngest_40_55), OR(A_0, car_age_15P)), NAND(XOR(NAND(B_0, state_AR), car_age_15P), age_youngest_20_24), NOT(OR(state_AR, state_WY))), coeficientPos(coeficientPos(add(O1, coeficientPos(coeficientPos(O1, 0.5), identityf(0.6))), identityf(0.1)), identityf(identityf(0.9))), IF1T(IF1T(NOT(state_AR), IF1T(NOR(IF1T(state_CT, risk_factor_1, state_ND), NAND(state_OH, OR(OR(state_OK, state_IA), XOR(C_4, group_size_3)))), C_previous_3, B_0), NOT(state_AR)), coeficientPos(O1, identityf(-0.2)), coeficientPos(coeficientPos(O1, 0.5), identityf(0.6))))
19 (-5388.741800000622,) IF0T(IF1T(AND(IF1T(time_12_15, age_oldest_55P, age_youngest_40_55), OR(A_0, car_age_15P)), NAND(XOR(NAND(B_0, married_couple), car_age_15P), age_youngest_20_24), NOT(AND(OR(D_2, FALSE), IF1T(time_21_24, car_age_0_5, state_DC)))), coeficientPos(coeficientPos(add(O1, coeficientPos(coeficientPos(O1, 0.5), identityf(0.6))), identityf(0.1)), identityf(identityf(0.9))), IF1T(IF1T(NOT(state_AR), IF1T(NOR(IF1T(state_CT, risk_factor_1, state_ND), NAND(state_OH, G_1)), C_previous_3, B_0), NOT(state_AR)), coeficientPos(O1, -0.2), coeficientPos(coeficientPos(O1, 0.5), identityf(0.6))))
