position: 109 110 
predictionParameter E
predictionParameterLength 2
nExps 5000
nRead 0
nIndiv 50
nHof 20
nGen 30
genMinTreeHeight 1
genMaxTreeHeight 11
   	      	                        fitness                        	              size             
   	      	-------------------------------------------------------	-------------------------------
gen	nevals	avg     	max     	min     	std    	avg    	max  	min	std    
0  	50    	-2435.73	-1478.57	-2890.65	292.412	1815.24	24507	3  	5107.12
1  	19    	-2622.07	-2240.85	-2801.59	154.133	192.42 	3539 	1  	733.794
2  	31    	-2686.1 	-2301.85	-2834.46	94.441 	23.74  	100  	1  	36.1988
3  	24    	-2702.18	-2301.99	-2834.46	75.0969	32.68  	101  	1  	39.3169
4  	21    	-2708.68	-2284.8 	-2881.5 	145.036	39.66  	100  	1  	38.3445
5  	27    	-2774   	-2316.9 	-2897.02	96.7027	56.98  	100  	1  	31.9089
6  	29    	-2808.95	-2504.25	-3251.69	112.808	68.8   	93   	1  	18.1505
7  	28    	-2832.87	-2546.17	-3251.69	124.417	68.14  	84   	42 	8.65566
8  	27    	-2866.23	-2572.42	-3252.52	150.754	66.66  	84   	11 	10.8749
9  	25    	-2919   	-2632.85	-3289.4 	162.444	66.22  	86   	25 	9.89806
10 	27    	-2984.94	-2325.99	-3271.46	195.127	67.54  	83   	1  	11.7664
11 	34    	-3132.3 	-2545.09	-3293.39	178.43 	70.08  	84   	1  	11.1478
12 	24    	-3145.84	-2250.25	-3293.39	242.941	70.54  	85   	40 	8.43139
13 	30    	-3165.47	-2373.68	-3310.57	186.828	67.34  	87   	37 	11.6217
14 	39    	-3144.07	-2261.36	-3324.57	233.394	69.62  	94   	7  	12.9582
15 	25    	-3214.59	-2439.36	-3324.57	159.369	70.5   	94   	56 	7.74919
16 	31    	-3229.03	-2660.83	-3365.69	160.948	68.76  	95   	48 	7.89825
17 	21    	-3260.98	-2277.87	-3365.69	170.587	67.38  	93   	57 	5.59961
18 	27    	-3246.15	-2320.92	-3469.42	204.998	67.7   	100  	29 	9.36002
19 	25    	-3212.87	-2306.25	-3469.42	264.805	64.94  	93   	3  	15.0764
20 	27    	-3243.51	-2309.59	-3469.42	220.285	67.9   	93   	39 	7.95047
21 	29    	-3312.76	-2345.76	-4048.8 	214.709	68     	92   	53 	6.56658
22 	31    	-3367.75	-2438.51	-3554.77	196.247	70.28  	101  	39 	9.49113
23 	26    	-3405.88	-2367.82	-4023.22	256.755	74.4   	101  	58 	9.17824
24 	27    	-3434.16	-2600.9 	-4123.79	226.339	76.06  	96   	56 	9.34539
25 	31    	-3451.07	-853.11 	-4140.99	501.626	77.04  	100  	58 	9.45084
26 	29    	-3618.36	-3042.84	-4219.74	281.88 	77.62  	118  	51 	11.6823
27 	18    	-3707.47	-2276.66	-4219.74	410.291	79.8   	118  	51 	12.619 
28 	35    	-3701.08	-912.275	-4343.48	651.915	80.5   	103  	51 	9.0294 
29 	30    	-3930.34	-2305.51	-4343.48	483.365	82.78  	131  	42 	11.1809
30 	24    	-4097.73	-2482.74	-4343.48	402.398	80.86  	117  	43 	10.3247
0 (-4343.476769999685,) IF0T(IF0T(NOR(NAND(B_0, age_youngest_16_19), NOR(IF0T(NOR(NAND(B_0, age_youngest_16_19), NOR(age_oldest_16_19, state_NH)), A_2, NOT(NAND(state_WV, age_oldest_25_40))), state_NH)), A_2, NOT(NAND(state_WV, age_oldest_25_40))), add(coeficientNeg(IF0T(state_WV, O0, Null), IF0T(OR(E_1, state_CO), 0.8, IF1T(state_WV, -0.5, -0.8))), Null), IF0T(NOR(AND(day_sunday, state_OH), NAND(state_NH, G_3)), IF1T(OR(OR(duration_previous_NA, cost_605_635), XOR(car_age_0_5, state_SD)), coeficientPos(O1, IF0T(OR(E_1, state_WA), 0.8, IF1T(state_WV, -0.5, -0.8))), add(O1, Null)), IF0T(NOT(NOR(state_ME, day_friday)), O0, IF1T(C_previous_1, Null, O0))))
1 (-4333.8973359996435,) IF0T(IF0T(NOR(OR(IF0T(D_2, age_youngest_16_19, state_OH), OR(risk_factor_1, car_value_f)), NOR(IF0T(NOR(NAND(B_0, age_youngest_16_19), NOR(age_oldest_16_19, state_NH)), A_2, NOT(NAND(state_WV, age_oldest_25_40))), state_NH)), A_2, NOT(NAND(state_WV, age_oldest_25_40))), add(coeficientNeg(IF0T(state_WV, O0, Null), IF0T(OR(E_1, state_CO), 0.8, IF1T(state_WV, -0.5, -0.8))), Null), IF0T(NOR(AND(day_sunday, state_OH), NAND(state_NH, G_3)), coeficientPos(O1, IF0T(OR(E_1, state_WA), 0.8, IF1T(state_WV, -0.5, -0.8))), IF0T(NOT(NOR(state_ME, day_friday)), O0, IF1T(C_previous_1, Null, O0))))
2 (-4318.214487999881,) IF0T(IF0T(NOR(OR(IF0T(D_2, age_youngest_16_19, state_OH), OR(risk_factor_1, car_value_f)), NOR(IF0T(NOR(NAND(B_0, age_youngest_16_19), NOR(age_oldest_16_19, state_NH)), A_2, NOT(NAND(state_WV, age_oldest_25_40))), state_NH)), A_2, NOT(NAND(state_WV, age_oldest_25_40))), add(coeficientNeg(IF0T(state_WV, O0, Null), IF0T(OR(E_1, state_CO), 0.8, IF1T(state_WV, -0.5, -0.8))), Null), IF0T(NOR(AND(day_sunday, state_OH), NAND(state_NH, G_3)), IF1T(OR(OR(duration_previous_NA, cost_605_635), age_oldest_55P), coeficientPos(O1, IF0T(OR(E_1, state_WA), 0.8, IF1T(state_WV, -0.5, -0.8))), add(O1, Null)), IF0T(NOT(NOR(state_ME, day_friday)), O0, IF1T(C_previous_1, Null, O0))))
3 (-4304.483200000086,) IF0T(IF0T(NOR(NAND(B_0, age_youngest_16_19), NOR(IF0T(NOR(NAND(B_0, age_youngest_16_19), NOR(age_oldest_16_19, state_NH)), A_2, NOT(NAND(state_WV, age_oldest_25_40))), state_NH)), A_2, NOT(NAND(state_WV, age_oldest_25_40))), add(coeficientNeg(IF0T(state_WV, O0, Null), IF0T(OR(E_1, state_CO), 0.8, IF1T(state_WV, -0.5, -0.8))), Null), IF0T(NOR(AND(day_sunday, state_OH), NAND(state_NH, G_3)), IF1T(OR(OR(duration_previous_NA, cost_605_635), XOR(car_age_0_5, state_SD)), coeficientPos(O1, IF0T(OR(E_1, state_WA), 0.8, IF1T(state_WV, -0.5, -0.8))), add(O1, Null)), IF0T(NOT(NOR(state_ME, day_friday)), O0, IF1T(OR(E_1, state_WA), Null, O0))))
4 (-4288.97602000008,) IF0T(IF0T(NOR(NAND(B_0, age_youngest_16_19), NOR(IF0T(C_previous_1, A_2, NOT(NAND(state_WV, age_oldest_25_40))), state_NH)), A_2, NOT(NAND(state_WV, age_oldest_25_40))), add(coeficientNeg(IF0T(state_WV, O0, Null), IF0T(OR(E_1, state_CO), 0.8, IF1T(state_WV, -0.5, -0.8))), Null), IF0T(NOR(AND(day_sunday, state_OH), NAND(state_NH, G_3)), IF1T(OR(NAND(OR(car_value_NA, C_3), NAND(day_monday, time_6_9)), age_oldest_55P), coeficientPos(O1, IF0T(OR(E_1, state_WA), 0.8, IF1T(state_WV, -0.5, -0.8))), add(O1, Null)), IF0T(NOT(NOR(state_ME, day_friday)), O0, IF1T(C_previous_1, Null, O0))))
5 (-4282.777216000076,) IF0T(IF0T(NOR(NAND(B_0, age_youngest_16_19), NOR(IF0T(NOR(NAND(B_0, age_youngest_16_19), NOR(age_oldest_16_19, state_NH)), A_2, NOT(NAND(state_WV, age_oldest_25_40))), state_NH)), A_2, NOT(NAND(state_WV, age_oldest_25_40))), add(coeficientNeg(IF0T(state_WV, O0, Null), IF0T(OR(E_1, state_CO), 0.8, IF1T(state_WV, -0.5, -0.8))), Null), IF0T(NOR(AND(day_sunday, state_OH), NAND(state_NH, G_3)), IF1T(OR(OR(duration_previous_NA, cost_605_635), XOR(car_age_0_5, state_SD)), coeficientPos(O1, IF0T(OR(E_1, state_WA), 0.8, IF1T(state_WV, -0.5, -0.8))), add(O1, Null)), IF0T(NOT(NOR(state_ME, day_friday)), O0, O1)))
6 (-4278.13092000018,) IF0T(IF0T(NOR(NAND(B_0, age_youngest_16_19), NOR(IF0T(NOR(NAND(B_0, age_youngest_16_19), NOR(age_oldest_16_19, state_NH)), A_2, NOT(NAND(state_WV, age_oldest_25_40))), state_NH)), A_2, NOT(NAND(state_WV, age_oldest_25_40))), add(coeficientNeg(IF0T(state_WV, O0, Null), IF0T(OR(E_1, state_CO), 0.8, IF1T(state_WV, -0.5, -0.8))), coeficientPos(O1, IF0T(OR(E_1, state_WA), 0.8, IF1T(state_WV, -0.5, -0.8)))), IF0T(NOR(AND(day_sunday, state_OH), NAND(state_NH, G_3)), IF1T(OR(OR(duration_previous_NA, cost_605_635), age_oldest_55P), coeficientPos(O1, IF0T(OR(E_1, state_WA), 0.8, IF1T(state_WV, -0.5, -0.8))), add(O1, Null)), IF0T(NOT(NOR(state_ME, day_friday)), O0, IF1T(E_1, Null, O0))))
7 (-4272.789396000079,) IF0T(IF0T(NOR(NAND(B_0, age_youngest_16_19), NOR(IF0T(NOR(NAND(B_0, age_youngest_16_19), NOR(age_oldest_16_19, state_NH)), A_2, NOT(NOR(C_1, time_6_9))), state_NH)), A_2, NOT(NAND(state_WV, age_oldest_25_40))), add(coeficientNeg(IF0T(state_WV, O0, Null), IF0T(OR(E_1, state_CO), 0.8, IF1T(state_WV, -0.5, -0.8))), Null), IF0T(NOR(AND(day_sunday, state_OH), NAND(state_NH, G_3)), IF1T(OR(OR(duration_previous_NA, cost_605_635), age_oldest_55P), coeficientPos(O1, IF0T(OR(E_1, state_WA), 0.8, IF1T(state_WV, -0.5, -0.8))), add(O1, Null)), IF0T(NOT(NOR(state_ME, day_friday)), O0, IF1T(C_previous_1, Null, O0))))
8 (-4263.945503999693,) IF0T(IF0T(NOR(NAND(B_0, age_youngest_16_19), NOR(IF0T(NOR(NAND(B_0, age_youngest_16_19), NOR(age_oldest_16_19, state_NH)), A_2, NOT(NOT(IF0T(time_6_9, married_couple, state_DC)))), state_NH)), A_2, NOT(NAND(state_WV, age_oldest_25_40))), add(coeficientNeg(IF0T(state_WV, O0, Null), IF0T(OR(E_1, state_CO), 0.8, IF1T(state_WV, -0.5, -0.8))), Null), IF0T(NOR(AND(day_sunday, state_OH), NAND(state_NH, G_3)), IF1T(OR(G_3, age_oldest_55P), coeficientPos(O1, IF0T(OR(E_1, state_WA), 0.8, IF1T(state_WV, -0.5, -0.8))), add(O1, Null)), IF0T(NOT(NOR(state_ME, day_friday)), O0, IF1T(E_1, Null, O0))))
9 (-4258.772336000164,) IF0T(IF0T(NOR(NAND(B_0, age_youngest_16_19), NOR(IF0T(NOR(NAND(B_0, age_youngest_16_19), NOR(age_oldest_16_19, state_NH)), A_2, NOT(NAND(state_WV, age_oldest_25_40))), state_NH)), A_2, NOT(NAND(state_WV, age_oldest_25_40))), add(coeficientNeg(IF0T(state_WV, O0, Null), IF0T(OR(E_1, state_CO), 0.8, IF1T(state_WV, -0.5, -0.8))), Null), IF0T(NOR(E_1, NAND(state_NH, G_3)), IF1T(OR(OR(duration_previous_NA, cost_605_635), XOR(car_age_0_5, state_SD)), coeficientPos(O1, IF0T(OR(E_1, state_WA), 0.8, IF1T(state_WV, -0.5, -0.8))), add(O1, Null)), IF0T(NOT(NOR(state_ME, day_friday)), O0, IF1T(C_previous_1, Null, O0))))
10 (-4241.623297999555,) IF0T(IF0T(NOR(NAND(B_0, age_youngest_16_19), NOR(IF0T(NOR(NAND(B_0, age_youngest_16_19), NOR(NOT(age_oldest_16_19), NOT(car_value_h))), A_2, cost_605_635), state_NH)), A_2, NOT(NAND(state_WV, age_oldest_25_40))), add(coeficientNeg(IF0T(state_MO, O0, Null), IF0T(OR(E_1, state_CO), 0.8, IF1T(state_WV, -0.5, IF1T(state_WV, -0.5, -0.8)))), Null), IF0T(NOR(AND(day_sunday, state_OH), NAND(state_NH, G_3)), IF1T(OR(OR(duration_previous_NA, cost_605_635), age_oldest_55P), coeficientPos(O1, IF0T(OR(E_1, state_WA), 0.8, IF1T(state_WV, -0.5, -0.8))), add(O1, Null)), IF0T(NOT(NOR(state_ME, day_friday)), O0, IF1T(C_previous_1, Null, O0))))
11 (-4234.903520000176,) IF0T(IF0T(NOR(NAND(B_0, age_youngest_16_19), NOR(IF0T(NOR(NAND(B_0, age_youngest_16_19), NOR(age_oldest_16_19, state_NH)), A_2, NOT(day_monday)), state_NH)), A_2, NOT(NAND(state_WV, age_oldest_25_40))), add(coeficientNeg(IF0T(state_WV, O0, Null), IF0T(OR(E_1, state_CO), 0.8, IF1T(state_WV, -0.5, -0.8))), Null), IF0T(NOR(AND(day_sunday, state_OH), NAND(state_NH, G_3)), IF1T(OR(OR(duration_previous_NA, cost_605_635), age_oldest_55P), coeficientPos(O1, IF0T(OR(E_1, state_WA), 0.8, IF1T(state_WV, -0.5, -0.8))), add(O1, Null)), IF0T(NOT(NOR(state_ME, day_friday)), O0, IF1T(C_previous_1, Null, O0))))
12 (-4232.144397999885,) IF0T(IF0T(NOR(NAND(B_0, age_youngest_16_19), NOR(IF0T(OR(E_1, state_WA), A_2, NOT(NAND(state_WV, age_oldest_25_40))), state_NH)), A_2, NOT(NAND(state_WV, age_oldest_25_40))), add(coeficientNeg(IF0T(state_WV, O0, Null), IF0T(OR(E_1, state_CO), 0.8, IF1T(state_WV, -0.5, -0.8))), Null), IF0T(NOR(AND(day_sunday, state_OH), NAND(state_NH, G_3)), IF1T(OR(OR(duration_previous_NA, cost_605_635), age_oldest_55P), coeficientPos(O1, IF0T(OR(E_1, state_WA), 0.8, IF1T(state_WV, -0.5, -0.8))), add(O1, Null)), IF0T(NOT(NOR(state_ME, day_friday)), O0, IF1T(C_previous_1, Null, O0))))
13 (-4229.909530000178,) IF0T(IF0T(NOR(NAND(B_0, age_youngest_16_19), NOR(IF0T(NOR(NAND(B_0, age_youngest_16_19), NOR(age_oldest_16_19, state_NH)), A_2, NOT(NAND(state_WV, age_oldest_25_40))), state_NH)), A_2, NOT(NAND(state_WV, age_oldest_25_40))), add(coeficientNeg(IF0T(state_WV, O0, Null), IF0T(OR(E_1, state_CO), 0.8, -0.8)), Null), IF0T(NOR(AND(day_sunday, state_OH), NAND(state_NH, G_3)), IF1T(OR(OR(duration_previous_NA, cost_605_635), age_oldest_55P), coeficientPos(O1, IF0T(OR(E_1, state_WA), 0.8, IF1T(state_WV, -0.5, -0.8))), add(O1, Null)), IF0T(NOT(NOR(state_ME, day_friday)), O0, IF1T(C_previous_1, Null, O0))))
14 (-4220.279070000258,) IF0T(IF0T(NOR(NAND(B_0, age_youngest_16_19), NOR(IF0T(NOR(NAND(B_0, age_youngest_16_19), NOR(age_oldest_16_19, state_NH)), A_2, NOT(NAND(state_WV, age_oldest_25_40))), state_NH)), A_2, NOT(NAND(state_WV, age_oldest_25_40))), add(coeficientNeg(IF0T(state_WV, O0, Null), IF0T(OR(E_1, state_WA), 0.8, IF1T(state_WV, -0.5, IF0T(OR(E_1, state_CO), 0.8, IF1T(state_WV, -0.5, -0.8))))), coeficientPos(IF0T(state_MS, O0, O1), IF0T(state_OH, 0.0, 0.4))), IF0T(NOR(AND(day_sunday, state_OH), NAND(state_NH, G_3)), IF1T(OR(OR(duration_previous_NA, cost_605_635), age_oldest_55P), coeficientPos(O1, 0.1), add(O1, Null)), IF0T(NOT(NOR(state_ME, day_friday)), O0, IF1T(C_previous_1, coeficientNeg(coeficientNeg(IF0T(state_WV, O0, Null), IF0T(OR(E_1, state_CO), 0.8, IF1T(state_WV, -0.5, -0.8))), -0.5), O0))))
15 (-4219.73565000036,) IF0T(IF0T(NOR(NAND(B_0, age_youngest_16_19), NOR(IF0T(NOR(NAND(B_0, age_youngest_16_19), NOR(age_oldest_16_19, state_NH)), A_2, NOT(NAND(state_WV, age_oldest_25_40))), state_NH)), A_2, NOT(NAND(state_WV, age_oldest_25_40))), add(coeficientNeg(IF0T(state_WV, O0, Null), IF0T(OR(E_1, state_CO), 0.8, IF1T(state_WV, -0.5, -0.8))), Null), IF0T(NOR(AND(day_sunday, state_OH), NAND(state_NH, G_3)), IF1T(OR(OR(duration_previous_NA, cost_605_635), age_oldest_55P), coeficientPos(O1, IF0T(OR(E_1, state_WA), 0.8, IF1T(state_WV, -0.5, -0.8))), add(O1, Null)), IF0T(NOT(NOR(state_ME, day_friday)), O0, IF1T(C_previous_1, Null, O0))))
16 (-4208.8252079997455,) IF0T(IF0T(NOR(NAND(B_0, age_youngest_16_19), NOR(IF0T(NOR(NAND(B_0, age_youngest_16_19), NOR(age_oldest_16_19, state_NH)), A_2, NOT(NAND(state_WV, age_oldest_25_40))), state_NH)), A_2, NOT(NAND(state_WV, age_oldest_25_40))), add(coeficientNeg(IF0T(state_WV, O0, Null), IF0T(OR(E_1, state_CO), 0.8, IF1T(state_WV, -0.5, -0.8))), Null), IF0T(NOR(AND(day_sunday, state_OH), NAND(state_NH, G_3)), IF1T(OR(OR(duration_previous_NA, cost_605_635), age_oldest_55P), coeficientPos(O1, IF0T(OR(E_1, state_WA), 0.8, IF1T(state_WV, -0.5, -0.8))), add(O1, Null)), IF0T(NOT(NOR(state_ME, day_friday)), O0, IF1T(E_1, Null, O0))))
17 (-4202.664256000071,) IF0T(IF0T(NOR(NAND(B_0, age_youngest_16_19), NOR(IF0T(NOR(NAND(B_0, age_youngest_16_19), NOR(age_oldest_16_19, state_NH)), A_2, NOT(NAND(state_WV, age_oldest_25_40))), NAND(state_NH, G_3))), A_2, NOT(NAND(state_WV, age_oldest_25_40))), add(coeficientNeg(IF0T(state_WV, O0, Null), IF0T(OR(E_1, state_CO), 0.8, IF1T(state_WV, -0.5, -0.8))), Null), IF0T(NOR(AND(day_sunday, state_OH), NAND(state_NH, G_3)), IF1T(OR(OR(duration_previous_NA, cost_605_635), age_oldest_55P), coeficientPos(O1, IF0T(OR(E_1, state_WA), 0.8, IF1T(state_WV, -0.5, -0.8))), add(O1, Null)), IF0T(NOT(NOR(state_ME, day_friday)), O0, IF1T(C_previous_1, Null, O0))))
18 (-4201.974143999912,) IF0T(IF0T(NOR(NAND(B_0, age_youngest_16_19), NOR(IF0T(NOR(NAND(B_0, age_youngest_16_19), NOR(age_oldest_16_19, state_NH)), A_2, NOT(NAND(state_WV, age_oldest_25_40))), state_NH)), A_2, NOT(NAND(state_WV, age_oldest_25_40))), add(coeficientNeg(IF0T(state_WV, O0, Null), IF0T(OR(E_1, state_CO), 0.8, IF1T(state_WV, -0.5, -0.8))), Null), IF0T(NOR(AND(day_sunday, state_OH), NAND(state_NH, G_3)), IF1T(OR(OR(duration_previous_NA, cost_605_635), XOR(car_age_0_5, state_SD)), IF1T(OR(OR(duration_previous_NA, cost_605_635), age_oldest_55P), coeficientPos(O1, IF0T(OR(E_1, state_WA), 0.8, IF1T(state_WV, -0.5, -0.8))), add(O1, Null)), add(O1, Null)), IF0T(NOT(NOR(state_ME, day_friday)), O0, IF1T(C_previous_1, Null, O0))))
19 (-4201.96842799969,) IF0T(IF0T(NOR(NAND(B_0, age_youngest_16_19), NOR(IF0T(NOR(NAND(B_0, age_youngest_16_19), NOR(age_oldest_16_19, state_NH)), A_2, cost_605_635), state_NH)), A_2, NOT(NAND(state_WV, age_oldest_25_40))), add(coeficientNeg(IF0T(state_MO, O0, Null), IF0T(OR(E_1, state_CO), 0.8, IF1T(state_WV, -0.5, -0.8))), Null), IF0T(NOR(AND(day_sunday, state_OH), NAND(state_NH, G_3)), IF1T(OR(OR(duration_previous_NA, cost_605_635), age_oldest_55P), coeficientPos(O1, IF0T(OR(E_1, state_WA), 0.8, IF1T(state_WV, -0.5, -0.8))), add(O1, Null)), IF0T(NOT(NOR(state_ME, day_friday)), O0, IF1T(C_previous_1, Null, O0))))
position: 109 110 
predictionParameter E
predictionParameterLength 2
nExps 5000
nRead 0
nIndiv 200
nHof 20
nGen 30
genMinTreeHeight 1
genMaxTreeHeight 11
   	      	                    fitness                    	              size             
   	      	-----------------------------------------------	-------------------------------
gen	nevals	avg    	max     	min     	std    	avg    	max  	min	std    
0  	200   	-2472.3	-721.288	-3128.92	284.311	1203.05	21257	3  	3524.16
1  	115   	-2637.79	-1019.96	-3227.78	195.334	219.14 	4694 	1  	654.773
2  	118   	-2711.72	-1935.89	-3259.23	178.719	150.67 	904  	1  	252.106
3  	110   	-2796.99	-2205.62	-3259.23	175.841	245.745	904  	1  	247.045
4  	125   	-2903   	-1634.94	-3658.71	222.003	337.11 	860  	1  	192.249
5  	119   	-3027.46	-1610.68	-3658.71	221.259	345.88 	853  	3  	99.5567
6  	115   	-3147.11	-2310.2 	-3658.71	186.498	369.045	456  	154	43.9414
7  	123   	-3249.28	-2111.01	-3664.78	161.171	371.425	451  	248	27.8252
8  	120   	-3298.59	-2337.11	-3733.23	249.45 	379.23 	471  	235	27.17  
9  	110   	-3394.51	-1172.33	-3769.84	289.257	378.42 	499  	147	34.4825
10 	118   	-3543.55	-2592.35	-3851.36	209.486	379.265	466  	227	33.4261
11 	118   	-3651.22	-2626.81	-3947.22	179.06 	373.64 	466  	8  	51.7064
12 	127   	-3690.41	-2516.46	-4066.03	226.483	361.795	693  	128	63.3261
13 	113   	-3726.89	-2309.75	-4066.03	275.19 	337.415	637  	92 	81.6096
14 	109   	-3823.44	-2296.38	-4129.72	228.404	302.46 	637  	106	91.4603
15 	123   	-3866.48	-2370.99	-4181.99	300.708	272.02 	639  	87 	107.982
16 	119   	-3918.89	-2009.2 	-4188.35	351.58 	217.63 	489  	5  	100.543
17 	111   	-3969.31	-2275.85	-4192.25	345.289	164.445	414  	5  	74.8581
18 	117   	-3979.9 	-2610.13	-4213.21	370.311	130.765	368  	3  	41.7098
19 	122   	-3911.68	-2287.89	-4194.89	493.81 	122.93 	259  	1  	33.5533
20 	114   	-4016.03	-2276.36	-4253.89	398.329	117.845	216  	3  	32.1125
21 	101   	-4013.07	-2308.06	-4244.48	423.268	115.065	225  	1  	34.7429
22 	101   	-4071.42	-2356.41	-4244.48	359.645	111.215	238  	1  	33.1796
23 	100   	-4053.61	-1260.62	-4262.94	430.799	110.695	246  	5  	41.0824
24 	116   	-3958.33	-783.647	-4312.15	635.96 	115.605	252  	8  	42.7007
25 	132   	-4015.13	-942.554	-4443.92	545.562	120.635	250  	1  	49.1099
26 	133   	-4009.78	-583.202	-4469.95	708.775	133.485	272  	3  	49.5672
27 	113   	-4087.07	-569.135	-4499.27	643.454	128.815	260  	11 	43.0881
28 	102   	-4144.19	-518.126	-4523.49	645.871	127.125	245  	3  	41.2657
29 	88    	-4288.08	-534.056	-4526.7 	494.967	126.56 	247  	8  	45.4894
30 	120   	-4131.48	-483.184	-4527.28	776.155	112.135	249  	1  	48.1941
0 (-4527.278080000446,) coeficientPos(IF1T(NAND(IF0T(state_IA, record_type, state_RI), AND(AND(IF0T(state_NY, day_sunday, car_age_5_10), NAND(age_oldest_16_19, car_value_c)), OR(IF1T(C_4, state_KY, OR(state_WV, homeowner)), NOT(state_NM)))), coeficientPos(coeficientNeg(coeficientNeg(IF0T(E_0, O1, O0), -0.6), IF1T(NOT(B_0), IF0T(day_sunday, -0.8, -0.9), IF0T(state_WV, -0.7, -0.2))), IF0T(IF0T(OR(time_18_21, age_youngest_20_24), car_value_g, IF1T(time_3_6, state_WV, G_1)), IF1T(XOR(age_youngest_16_19, state_IN), IF1T(state_WV, -1.0, IF0T(day_friday, 0.1, -0.1)), IF1T(time_9_12, 0.4, 0.6)), 0.4)), sub(add(IF0T(XOR(A_2, state_GA), O0, sub(Null, Null)), IF1T(IF0T(state_IA, record_type, state_SD), coeficientNeg(O0, 0.5), coeficientNeg(sub(O0, O1), IF1T(IF0T(G_4, day_sunday, F_0), IF0T(state_RI, -0.5, -0.6), IF1T(XOR(day_sunday, group_size_4), -1.0, -0.8))))), sub(IF1T(IF1T(state_MS, IF1T(time_3_6, state_WV, G_1), age_youngest_25_40), sub(O0, O1), add(Null, O0)), IF1T(NAND(AND(car_age_15P, NOT(AND(G_1, state_SD))), AND(AND(IF0T(state_NY, day_sunday, car_age_5_10), NAND(G_1, car_value_c)), OR(E_1, NOT(state_NM)))), coeficientPos(coeficientNeg(coeficientNeg(IF0T(E_0, O1, coeficientPos(Null, 0.0)), IF1T(state_MT, -0.3, -0.5)), IF1T(NOT(B_0), IF0T(day_sunday, -0.8, -0.9), IF0T(D_3, -0.7, -0.2))), IF0T(IF0T(OR(time_18_21, age_youngest_20_24), NOR(state_OK, E_1), IF1T(time_3_6, state_WV, G_1)), IF1T(XOR(age_youngest_16_19, state_IN), IF1T(state_WV, -1.0, IF0T(day_friday, 0.1, -0.1)), IF1T(time_9_12, 0.4, 0.6)), IF0T(IF1T(group_size_3, state_CT, D_2), IF0T(car_value_e, 0.2, 0.7), IF0T(time_15_18, -0.8, 0.5)))), sub(add(IF0T(XOR(A_2, state_GA), O0, sub(Null, Null)), O0), sub(IF1T(IF1T(state_MS, car_value_g, age_youngest_25_40), sub(O0, O1), coeficientPos(Null, 0.0)), add(IF1T(car_value_c, coeficientNeg(Null, -0.9), O0), add(Null, O1)))))))), -0.8)
1 (-4526.695935999613,) coeficientPos(coeficientNeg(IF0T(E_0, O1, O0), IF1T(state_MT, IF1T(NOT(B_0), IF0T(day_sunday, -0.8, -0.9), IF0T(D_3, -0.7, -0.2)), -0.5)), -0.8)
2 (-4523.778951999561,) coeficientPos(IF1T(NAND(IF0T(state_IA, record_type, state_SD), AND(AND(IF0T(state_NY, day_sunday, car_age_5_10), NAND(age_oldest_16_19, car_value_c)), OR(IF1T(C_4, state_KY, OR(state_WV, homeowner)), NOT(state_NM)))), coeficientPos(coeficientNeg(coeficientNeg(IF0T(E_0, O1, O0), IF1T(state_MT, -0.3, -0.5)), IF1T(NOT(B_0), IF0T(day_sunday, -0.8, -0.9), -0.5)), IF0T(IF0T(OR(time_18_21, age_youngest_20_24), car_value_g, IF1T(time_3_6, state_WV, G_1)), IF1T(XOR(age_youngest_16_19, state_IN), IF1T(state_WV, -1.0, IF0T(day_friday, 0.1, -0.1)), IF1T(time_9_12, 0.4, 0.6)), 0.4)), sub(add(IF0T(XOR(A_2, state_GA), O0, sub(Null, Null)), IF1T(IF0T(state_IA, record_type, state_SD), coeficientNeg(O0, 0.5), coeficientNeg(Null, -0.7))), sub(IF1T(IF1T(state_MS, IF1T(time_3_6, state_WV, G_1), age_youngest_25_40), sub(O0, O1), add(Null, O0)), add(IF1T(XOR(risk_factor_4, state_WI), O1, O0), add(Null, O1))))), -0.8)
3 (-4523.49492000014,) coeficientPos(IF1T(NAND(IF0T(state_IA, record_type, state_SD), AND(AND(IF0T(state_NY, day_sunday, car_age_5_10), NAND(age_oldest_16_19, car_value_c)), OR(IF1T(C_4, state_KY, OR(state_WV, homeowner)), NOT(state_NM)))), coeficientPos(coeficientNeg(coeficientNeg(IF0T(E_0, O1, O0), IF1T(state_MT, -0.3, -0.5)), IF1T(NOT(B_0), IF0T(day_sunday, -0.8, -0.9), IF0T(D_3, -0.7, -1.0))), 0.4), sub(add(IF0T(XOR(A_2, state_GA), O0, sub(Null, Null)), IF1T(IF0T(state_IA, record_type, state_SD), coeficientNeg(O0, 0.5), coeficientNeg(Null, -0.7))), sub(IF1T(IF1T(state_MS, XOR(day_tuesday, group_size_2), age_youngest_25_40), sub(O0, O1), add(Null, O0)), add(IF1T(car_value_c, O1, O0), add(Null, coeficientPos(O1, -0.4)))))), -0.8)
4 (-4518.142863999634,) coeficientPos(IF1T(NAND(IF0T(state_IA, record_type, state_SD), AND(AND(IF0T(state_NY, day_sunday, car_age_5_10), NAND(age_oldest_16_19, car_value_c)), OR(IF1T(C_4, state_KY, OR(state_WV, homeowner)), NOT(state_NM)))), coeficientPos(coeficientNeg(coeficientNeg(IF0T(E_0, O1, O0), -0.5), IF1T(NOT(B_0), IF0T(day_sunday, -0.8, -0.9), -0.5)), IF0T(IF0T(OR(time_18_21, age_youngest_20_24), car_value_g, IF1T(time_3_6, state_WV, G_1)), IF1T(XOR(age_youngest_16_19, state_IN), IF1T(state_WV, -1.0, IF0T(day_friday, 0.1, -0.1)), IF1T(time_9_12, 0.4, 0.6)), 0.4)), sub(add(IF0T(XOR(A_2, state_GA), O0, sub(Null, Null)), IF1T(IF0T(state_IA, record_type, state_SD), coeficientNeg(O0, 0.5), coeficientNeg(Null, -0.7))), sub(IF1T(IF1T(state_MS, IF1T(time_3_6, state_WV, G_1), age_youngest_25_40), sub(O0, O1), add(Null, O0)), add(IF1T(car_value_c, O1, O0), add(Null, O1))))), -0.8)
5 (-4518.111659999704,) coeficientPos(IF1T(NAND(IF0T(state_IA, record_type, state_RI), AND(AND(IF0T(state_NY, day_sunday, car_age_5_10), NAND(age_oldest_16_19, car_value_c)), OR(IF1T(C_4, state_KY, OR(state_WV, homeowner)), NOT(state_NM)))), coeficientPos(coeficientNeg(coeficientNeg(IF0T(E_0, O1, O0), IF1T(state_MT, -0.3, -0.5)), IF1T(NOT(B_0), IF0T(day_sunday, -0.8, -0.9), IF0T(state_WV, -0.7, -0.2))), IF0T(IF0T(OR(time_18_21, age_youngest_20_24), car_value_g, IF1T(time_3_6, state_WV, G_1)), IF1T(XOR(age_youngest_16_19, state_IN), IF1T(state_WV, -1.0, IF0T(day_friday, 0.1, -0.1)), IF1T(time_9_12, 0.4, 0.6)), 0.4)), sub(add(IF0T(XOR(A_2, state_GA), O0, sub(Null, Null)), IF1T(IF0T(state_IA, record_type, state_SD), coeficientNeg(O0, 0.5), coeficientNeg(sub(O0, O1), IF1T(IF0T(G_4, day_sunday, F_0), IF0T(state_RI, -0.5, -0.6), IF1T(XOR(day_sunday, group_size_4), -1.0, -0.8))))), sub(IF1T(IF1T(state_MS, IF1T(time_3_6, state_WV, G_1), age_youngest_25_40), sub(O0, O1), add(Null, O0)), IF1T(NAND(AND(car_age_15P, NOT(AND(G_1, state_SD))), AND(AND(IF0T(state_NY, day_sunday, car_age_5_10), NAND(G_1, car_value_c)), OR(E_1, NOT(state_NM)))), coeficientPos(coeficientNeg(coeficientNeg(IF0T(E_0, O1, coeficientPos(Null, 0.0)), IF1T(state_MT, -0.3, -0.5)), IF1T(NOT(B_0), IF0T(day_sunday, -0.8, -0.9), IF0T(D_3, -0.7, -0.2))), IF0T(IF0T(OR(time_18_21, age_youngest_20_24), NOR(state_OK, E_1), IF1T(time_3_6, state_WV, G_1)), IF1T(XOR(age_youngest_16_19, state_IN), IF1T(state_WV, -1.0, IF0T(day_friday, 0.1, -0.1)), IF1T(time_9_12, 0.4, 0.6)), IF0T(IF1T(group_size_3, state_CT, D_2), IF0T(car_value_e, 0.2, 0.7), IF0T(time_15_18, -0.8, 0.5)))), sub(add(IF0T(XOR(A_2, state_GA), O0, sub(Null, Null)), O0), sub(IF1T(IF1T(state_MS, car_value_g, age_youngest_25_40), sub(O0, O1), coeficientPos(Null, 0.0)), add(IF1T(car_value_c, coeficientNeg(Null, -0.9), O0), add(Null, O1)))))))), -0.8)
6 (-4517.26808400019,) coeficientPos(coeficientNeg(IF0T(E_0, O1, O0), IF1T(state_MT, -0.1, -0.5)), -0.8)
7 (-4509.795312000146,) coeficientPos(IF1T(NAND(IF0T(state_IA, record_type, state_SD), AND(AND(IF0T(state_NY, day_sunday, car_age_5_10), NAND(age_oldest_16_19, car_value_c)), OR(IF1T(C_4, cost_665P, OR(state_WV, homeowner)), NOT(state_NM)))), coeficientPos(coeficientNeg(coeficientNeg(IF0T(E_0, O1, O0), IF1T(state_MT, -0.9, -0.5)), IF1T(NOT(B_0), IF0T(day_sunday, -0.8, -0.9), IF0T(D_3, -0.7, -0.8))), IF0T(IF0T(OR(time_18_21, age_youngest_20_24), car_value_g, IF1T(time_3_6, state_WV, G_1)), IF1T(XOR(age_youngest_16_19, state_IN), IF1T(state_WV, -1.0, IF0T(day_friday, 0.1, -0.1)), IF1T(time_9_12, 0.4, 0.6)), 0.4)), sub(add(IF0T(XOR(A_2, state_GA), O0, sub(Null, Null)), IF1T(IF0T(state_IA, record_type, state_SD), coeficientNeg(O0, 0.5), coeficientNeg(Null, -0.7))), sub(IF1T(IF1T(state_MS, IF1T(time_3_6, state_WV, G_1), age_youngest_25_40), sub(O0, O1), add(Null, O0)), add(IF1T(car_value_c, O1, O0), add(Null, O1))))), -0.8)
8 (-4508.26052399984,) coeficientPos(coeficientNeg(IF0T(E_0, O1, O0), IF1T(homeowner, -0.3, -0.5)), -0.8)
9 (-4506.963299999976,) coeficientPos(IF1T(NAND(IF0T(state_IA, record_type, state_SD), AND(AND(IF0T(state_NY, day_sunday, car_age_5_10), NAND(age_oldest_16_19, car_value_c)), OR(IF1T(C_4, state_KY, OR(state_WV, homeowner)), NOT(state_NM)))), coeficientPos(coeficientNeg(coeficientNeg(IF0T(E_0, O1, O0), IF1T(state_MT, -0.3, -0.5)), IF1T(NOT(B_0), IF0T(day_sunday, -0.8, -0.9), -0.5)), IF0T(IF0T(OR(time_18_21, age_youngest_20_24), car_value_g, IF1T(time_3_6, state_WV, G_1)), IF1T(XOR(age_youngest_16_19, state_IN), IF1T(state_WV, -1.0, IF0T(day_friday, 0.1, -0.1)), IF1T(time_9_12, 0.4, 0.6)), 0.4)), sub(add(IF0T(XOR(A_2, state_GA), O0, sub(Null, Null)), IF1T(IF0T(state_IA, record_type, state_SD), coeficientNeg(O0, 0.5), coeficientNeg(Null, -0.7))), sub(IF1T(IF1T(state_MS, IF1T(time_3_6, state_WV, G_1), age_youngest_25_40), sub(O0, O1), add(Null, O0)), add(IF1T(car_value_c, O1, O0), add(Null, O1))))), -0.8)
10 (-4504.298935999936,) coeficientPos(IF1T(NAND(IF0T(state_IA, record_type, state_SD), AND(AND(IF0T(state_NY, AND(IF0T(state_NY, day_sunday, car_age_5_10), NAND(age_oldest_16_19, car_value_c)), car_age_5_10), NAND(age_oldest_16_19, car_value_c)), OR(IF1T(C_4, state_KY, OR(state_WV, homeowner)), NOT(state_MT)))), coeficientPos(coeficientNeg(coeficientNeg(IF0T(E_0, O1, O0), IF1T(state_MT, -0.3, -0.5)), IF1T(NOT(B_0), IF0T(day_sunday, -0.8, -0.9), -0.5)), IF0T(IF0T(OR(time_18_21, age_youngest_20_24), car_value_g, IF1T(time_3_6, state_WV, G_1)), IF1T(XOR(age_youngest_16_19, time_12_15), IF1T(state_WV, -1.0, IF0T(day_friday, 0.1, -0.1)), IF1T(time_9_12, 0.4, 0.6)), 0.4)), sub(add(IF0T(XOR(A_2, state_GA), O0, sub(Null, Null)), IF1T(IF0T(state_IA, record_type, state_SD), coeficientNeg(O0, 0.5), coeficientNeg(Null, -0.7))), sub(IF1T(IF1T(state_MS, IF1T(time_3_6, state_WV, G_1), age_youngest_25_40), sub(O0, O1), add(Null, O0)), add(IF1T(car_value_c, O1, O0), add(Null, O1))))), -0.8)
11 (-4504.140096000073,) coeficientPos(IF1T(NAND(IF0T(state_IA, record_type, state_SD), AND(AND(IF0T(state_NY, day_sunday, car_age_5_10), NAND(age_oldest_16_19, car_value_c)), OR(IF1T(C_4, state_KY, OR(state_WV, homeowner)), NOT(state_NM)))), coeficientPos(coeficientNeg(coeficientNeg(IF0T(E_0, O1, O0), IF1T(state_MT, -0.3, -0.5)), IF1T(NOT(B_0), IF0T(day_sunday, -0.8, -0.9), -0.5)), IF0T(IF0T(OR(time_18_21, age_youngest_20_24), car_value_g, IF1T(time_3_6, state_WV, G_1)), IF1T(XOR(age_youngest_16_19, state_IN), IF1T(state_WV, -1.0, IF0T(day_friday, 0.1, -0.1)), IF1T(time_9_12, 0.4, 0.6)), 0.4)), sub(add(sub(O0, O1), IF1T(IF0T(state_IA, record_type, state_SD), coeficientNeg(O0, 0.5), coeficientNeg(Null, -0.7))), sub(IF1T(IF1T(state_MS, IF1T(time_3_6, state_WV, NOR(E_0, state_IA)), age_youngest_25_40), sub(O0, O1), add(Null, O0)), add(IF1T(car_value_c, O1, O0), add(Null, O1))))), -0.8)
12 (-4499.271000000195,) coeficientPos(coeficientNeg(IF0T(E_0, O1, O0), IF1T(state_MT, -0.3, -0.5)), -0.8)
13 (-4498.797260000003,) coeficientPos(IF1T(NAND(IF0T(state_IA, record_type, state_SD), AND(AND(IF0T(state_NY, day_sunday, car_age_5_10), NAND(age_oldest_16_19, car_value_c)), OR(IF1T(C_4, state_KY, OR(state_WV, homeowner)), NOT(state_NM)))), coeficientPos(coeficientNeg(coeficientNeg(IF0T(E_0, O1, O0), IF1T(state_MT, -0.3, -0.5)), IF1T(NOT(B_0), IF0T(day_sunday, -0.8, -0.9), -0.5)), IF0T(IF0T(OR(time_18_21, age_youngest_20_24), car_value_g, IF1T(time_3_6, state_WV, G_1)), IF1T(XOR(age_youngest_16_19, state_IN), IF1T(state_WV, -1.0, IF0T(day_friday, 0.1, -0.1)), IF1T(time_9_12, 0.4, 0.6)), 0.4)), sub(add(IF0T(XOR(A_2, state_GA), O0, sub(Null, Null)), IF1T(IF0T(state_IA, record_type, state_SD), coeficientNeg(O0, 0.5), coeficientNeg(Null, -0.7))), sub(IF1T(IF1T(state_MS, IF1T(time_3_6, state_WV, G_1), age_youngest_25_40), sub(O0, O1), add(Null, O0)), add(IF1T(car_value_c, O1, coeficientNeg(O0, 0.6)), add(Null, O1))))), -0.8)
14 (-4496.963079999832,) coeficientPos(IF1T(NAND(IF0T(state_IA, record_type, state_SD), AND(AND(IF0T(state_NY, day_sunday, car_age_5_10), NAND(age_oldest_16_19, car_value_c)), OR(IF1T(C_4, state_KY, OR(state_WV, homeowner)), NOT(state_NM)))), coeficientPos(coeficientNeg(coeficientNeg(IF0T(E_0, O1, O0), IF1T(state_MT, -0.3, -0.5)), IF1T(NOT(B_0), IF0T(day_sunday, -0.8, -0.9), -0.5)), IF0T(IF0T(OR(time_18_21, age_youngest_20_24), car_value_g, IF1T(time_3_6, day_sunday, G_1)), IF1T(XOR(age_youngest_16_19, state_IN), IF1T(state_WV, -1.0, IF0T(day_friday, 0.1, -0.1)), IF1T(time_9_12, 0.4, 0.6)), 0.4)), sub(add(IF0T(XOR(A_2, state_GA), O0, sub(Null, Null)), IF1T(IF0T(state_IA, record_type, state_SD), coeficientNeg(O0, 0.5), coeficientNeg(Null, -0.7))), sub(IF1T(IF1T(state_MS, IF1T(time_3_6, state_WV, G_1), age_youngest_25_40), sub(O0, O1), add(Null, O0)), add(IF1T(car_value_c, O1, O0), add(Null, O1))))), -0.8)
15 (-4494.786528000172,) coeficientPos(IF1T(NAND(IF0T(state_IA, record_type, state_SD), AND(AND(IF0T(state_NY, day_sunday, car_age_5_10), NAND(age_oldest_16_19, car_value_c)), OR(IF1T(C_4, state_KY, OR(state_WV, homeowner)), NOT(state_NM)))), coeficientPos(coeficientNeg(coeficientNeg(IF0T(E_0, O1, O0), IF1T(state_MT, -0.3, -0.5)), IF1T(NOT(B_0), IF0T(day_sunday, IF1T(state_MT, -0.3, -0.5), -0.9), -0.5)), IF0T(IF0T(OR(time_18_21, age_youngest_20_24), car_value_g, IF1T(time_3_6, state_WV, G_1)), IF1T(XOR(age_youngest_16_19, state_IN), IF1T(state_WV, -1.0, IF0T(day_friday, 0.1, -0.1)), IF1T(time_9_12, 0.4, 0.6)), 0.4)), sub(add(IF0T(XOR(A_2, state_GA), O0, sub(Null, Null)), IF1T(IF0T(state_IA, record_type, state_SD), coeficientNeg(O0, 0.5), coeficientNeg(Null, -0.7))), sub(IF1T(IF1T(state_MS, IF1T(time_3_6, state_WV, G_1), age_youngest_25_40), sub(O0, O1), add(Null, O0)), add(IF1T(car_value_c, O1, O0), add(Null, O1))))), -0.8)
16 (-4485.5872320003655,) coeficientPos(IF1T(NAND(IF0T(state_IA, record_type, state_SD), AND(AND(IF0T(state_NY, day_sunday, car_age_5_10), NAND(age_oldest_16_19, car_value_c)), OR(IF1T(C_4, state_KY, OR(state_WV, homeowner)), NOT(state_NM)))), coeficientPos(coeficientNeg(coeficientNeg(IF0T(E_0, O1, O0), IF1T(state_MT, -0.3, -0.5)), IF1T(NOT(B_0), IF0T(day_sunday, -0.8, -0.9), IF0T(D_3, -0.7, -0.2))), IF0T(IF0T(OR(time_18_21, age_youngest_20_24), car_value_g, IF1T(time_3_6, state_WV, G_1)), IF1T(XOR(age_youngest_16_19, state_IN), IF1T(state_WV, -1.0, IF0T(day_friday, 0.1, -0.1)), IF1T(time_9_12, 0.4, 0.6)), 0.4)), sub(add(IF0T(XOR(A_2, state_GA), O0, sub(Null, Null)), IF1T(IF0T(state_IA, record_type, state_SD), coeficientNeg(O0, 0.5), coeficientNeg(Null, -0.7))), sub(IF1T(IF1T(state_MS, IF1T(time_3_6, state_WV, G_1), age_youngest_25_40), sub(O0, O1), sub(IF1T(E_1, Null, O1), IF1T(time_3_6, Null, O0))), IF1T(duration_previous_5_9, O0, Null)))), -0.8)
17 (-4485.242537999657,) coeficientPos(IF1T(NAND(IF0T(state_IA, record_type, state_SD), AND(AND(IF0T(state_NY, day_sunday, car_age_5_10), NAND(age_oldest_16_19, car_value_c)), OR(IF1T(C_4, state_KY, OR(state_WV, homeowner)), NOT(state_NM)))), coeficientPos(coeficientNeg(coeficientNeg(IF0T(E_0, O1, O0), IF1T(state_MT, -0.3, -0.5)), IF1T(NOT(B_0), IF0T(day_sunday, -0.8, -0.9), IF0T(D_3, -0.7, -0.2))), 0.6), sub(add(IF0T(XOR(A_2, state_GA), O0, sub(Null, Null)), IF1T(IF0T(state_IA, record_type, state_SD), coeficientNeg(O0, 0.5), coeficientNeg(Null, -0.7))), sub(IF1T(day_monday, sub(O0, O1), add(Null, O0)), add(IF1T(car_value_c, O1, O0), add(Null, O1))))), -0.8)
18 (-4483.770656000257,) coeficientPos(IF1T(NAND(IF0T(state_IA, record_type, state_SD), AND(AND(IF0T(state_NY, day_sunday, car_age_5_10), NAND(age_oldest_16_19, car_value_c)), C_4)), coeficientPos(coeficientNeg(coeficientNeg(IF0T(E_0, O1, O0), IF1T(state_MT, -0.3, -0.5)), IF1T(NOT(B_0), IF0T(day_sunday, -0.8, -0.9), IF0T(D_3, -0.7, -0.2))), IF0T(IF0T(OR(time_18_21, age_youngest_20_24), car_value_g, IF1T(time_3_6, state_WV, G_1)), IF1T(XOR(age_youngest_16_19, state_IN), IF1T(state_WV, -1.0, IF0T(day_friday, 0.1, -0.1)), IF1T(time_9_12, 0.4, 0.6)), 0.4)), sub(add(IF0T(XOR(A_2, state_GA), O0, sub(Null, coeficientPos(IF1T(group_size_2, Null, Null), IF1T(time_6_9, -0.1, -0.4)))), IF1T(IF0T(state_IA, record_type, state_SD), coeficientNeg(O0, 0.5), coeficientNeg(Null, -0.7))), sub(IF1T(IF1T(state_MS, IF1T(time_3_6, state_WV, G_1), age_youngest_25_40), sub(O0, O1), add(Null, O0)), add(IF1T(car_value_c, O1, O0), add(Null, O1))))), -0.8)
19 (-4482.916199999987,) coeficientPos(IF1T(NAND(IF0T(state_IA, record_type, state_SD), AND(AND(IF0T(state_NY, day_sunday, car_age_5_10), NAND(age_oldest_16_19, car_value_c)), OR(IF1T(state_IN, state_KY, OR(state_WV, homeowner)), homeowner))), coeficientPos(coeficientNeg(coeficientNeg(IF0T(E_0, O1, O0), IF1T(state_MT, -0.3, -0.5)), IF1T(NOT(B_0), IF0T(day_sunday, -0.8, -0.9), IF0T(D_3, -0.7, -0.2))), IF0T(IF0T(OR(time_18_21, age_youngest_20_24), car_value_g, IF1T(time_3_6, state_WV, G_1)), IF1T(XOR(age_youngest_16_19, state_IN), IF1T(state_WV, -1.0, IF0T(day_friday, 0.1, -0.1)), IF1T(time_9_12, 0.4, 0.6)), 0.4)), sub(add(IF0T(XOR(A_2, state_GA), O0, sub(Null, Null)), IF1T(IF0T(state_IA, record_type, state_SD), coeficientNeg(O0, 0.5), coeficientNeg(Null, -0.7))), sub(IF1T(IF1T(state_MS, IF1T(time_3_6, state_WV, G_1), age_youngest_25_40), sub(O0, O1), add(Null, O0)), IF1T(duration_previous_5_9, O0, Null)))), -0.8)
